<?xml version="1.0" encoding="utf-8"?>
<!-- Generator: Adobe Illustrator 23.0.0, SVG Export Plug-In . SVG Version: 6.00 Build 0)  -->
<svg version="1.1" id="Camada_1" xmlns="http://www.w3.org/2000/svg" xmlns:xlink="http://www.w3.org/1999/xlink" x="0px" y="0px"
	 viewBox="0 0 105 102.16" style="enable-background:new 0 0 105 102.16;" xml:space="preserve">
<style type="text/css">
	.st0{fill:#351847;}
</style>
<path id="Path_1021" class="st0" d="M60.34,60.24c1.05,0,1.9-0.85,1.9-1.9c0-1.05-0.85-1.9-1.9-1.9c-1.05,0-1.9,0.85-1.9,1.9
	C58.44,59.39,59.29,60.24,60.34,60.24z"/>
<path id="Path_1022" class="st0" d="M52.74,60.24c1.05,0,1.9-0.85,1.9-1.9c0-1.05-0.85-1.9-1.9-1.9s-1.9,0.85-1.9,1.9
	C50.83,59.39,51.69,60.24,52.74,60.24z"/>
<path id="Path_1023" class="st0" d="M52.74,88.02c-1.05,0-1.9,0.85-1.9,1.9c0,1.05,0.85,1.9,1.9,1.9c1.05,0,1.9-0.85,1.9-1.9l0,0
	C54.64,88.87,53.79,88.02,52.74,88.02z"/>
<path id="Path_1024" class="st0" d="M45.13,60.24c1.05,0,1.9-0.85,1.9-1.9c0-1.05-0.85-1.9-1.9-1.9c-1.05,0-1.9,0.85-1.9,1.9
	C43.23,59.39,44.08,60.24,45.13,60.24z"/>
<path id="Path_1025" class="st0" d="M26.11,2.04c-3.15,0-5.7,2.56-5.71,5.71v85.98c0,3.15,2.56,5.7,5.71,5.71h53.26
	c3.15,0,5.7-2.56,5.71-5.71V7.75c0-3.15-2.56-5.7-5.71-5.71H26.11z M81.27,80.41H24.2V17.26h57.06V80.41z M79.37,95.62H26.11
	c-1.05,0-1.9-0.85-1.9-1.9v-9.51h57.06v9.51C81.27,94.77,80.42,95.62,79.37,95.62z M81.27,7.75v5.71H24.2V7.75
	c0-1.05,0.85-1.9,1.9-1.9h53.26C80.42,5.85,81.27,6.7,81.27,7.75z"/>
<path id="Path_1026" class="st0" d="M67.95,60.24c1.05,0,1.9-0.85,1.9-1.9l0,0V39.32c0-1.05-0.85-1.9-1.9-1.9
	c-1.05,0-1.9,0.85-1.9,1.9v19.02C66.05,59.39,66.9,60.24,67.95,60.24L67.95,60.24z"/>
<path id="Path_1027" class="st0" d="M60.34,52.64c1.05,0,1.9-0.85,1.9-1.9l0,0V39.32c0-1.05-0.85-1.9-1.9-1.9
	c-1.05,0-1.9,0.85-1.9,1.9v11.41C58.44,51.78,59.29,52.64,60.34,52.64L60.34,52.64z"/>
<path id="Path_1028" class="st0" d="M52.74,52.64c1.05,0,1.9-0.85,1.9-1.9l0,0V39.32c0-1.05-0.85-1.9-1.9-1.9s-1.9,0.85-1.9,1.9
	v11.41C50.83,51.78,51.69,52.64,52.74,52.64L52.74,52.64z"/>
<path id="Path_1029" class="st0" d="M45.13,52.64c1.05,0,1.9-0.85,1.9-1.9l0,0V39.32c0-1.05-0.85-1.9-1.9-1.9
	c-1.05,0-1.9,0.85-1.9,1.9c0,0,0,0,0,0v11.41C43.23,51.78,44.08,52.64,45.13,52.64z"/>
<path id="Path_1030" class="st0" d="M37.52,37.42c-1.05,0-1.9,0.85-1.9,1.9l0,0v19.02c0,1.05,0.85,1.9,1.9,1.9s1.9-0.85,1.9-1.9
	c0,0,0,0,0,0V39.32C39.42,38.27,38.57,37.42,37.52,37.42z"/>
<path id="Path_1031" class="st0" d="M67.95,33.61h5.71v5.7c0,1.05,0.85,1.9,1.9,1.9s1.9-0.85,1.9-1.9v-7.61
	c0-1.05-0.86-1.9-1.91-1.9h0h-7.61c-1.05,0-1.9,0.85-1.9,1.9S66.9,33.61,67.95,33.61L67.95,33.61z"/>
<path id="Path_1032" class="st0" d="M67.95,67.85h7.6c1.05,0,1.9-0.85,1.9-1.9v-7.61c0-1.05-0.85-1.9-1.9-1.9s-1.9,0.85-1.9,1.9
	v5.71h-5.71c-1.05,0-1.9,0.85-1.9,1.9C66.05,67,66.9,67.85,67.95,67.85L67.95,67.85z"/>
<path id="Path_1033" class="st0" d="M29.91,41.22c1.05,0,1.9-0.85,1.9-1.9l0,0v-5.71h5.7c1.05,0,1.9-0.85,1.9-1.9
	c0-1.05-0.85-1.9-1.9-1.9h-7.6c-1.05,0-1.9,0.85-1.9,1.9c0,0,0,0,0,0v7.6C28.01,40.37,28.86,41.22,29.91,41.22
	C29.91,41.22,29.91,41.22,29.91,41.22z"/>
<path id="Path_1034" class="st0" d="M29.91,67.85h7.6c1.05,0,1.9-0.85,1.9-1.9c0-1.05-0.85-1.9-1.9-1.9h-5.7v-5.71
	c0-1.05-0.85-1.9-1.9-1.9c-1.05,0-1.9,0.85-1.9,1.9v7.6C28.01,67,28.86,67.85,29.91,67.85C29.91,67.85,29.91,67.85,29.91,67.85z"/>
</svg>
